{
    //primera pregunta
    "disclosure-layout#first": {
        "children": [
            "disclosure-trigger#first",
            "disclosure-content#first"
        ]
    },
    "disclosure-trigger#first": {
        "children": [
            "flex-layout.row#trigger-first",
            "disclosure-state-indicator"
        ]
    },
    "disclosure-content#first": {
        "children": [
            "flex-layout.row#answer-1-a",
            "flex-layout.row#answer-1-b"
        ]
    },
    "flex-layout.row#trigger-first": {
        "children": [
            "image#question1",
            "flex-layout.col#question-1"
        ]
    },
    "image#question1": {
        "props": {
            "src": "/arquivos/box-2.png",
            "maxHeight": "100px",
            "maxWidth": "100px",
            "blockClass": "img-cambios"
        }
    },

    "flex-layout.col#question-1": {
        "children": [
            "rich-text#question1",
            "rich-text#question1end"
        ],
        "props": {
            "width": "80%",
            "blockClass": "question-n"
        }
    },
    "rich-text#question1": {
        "props": {
            "text": "¿CÓMO PUEDO"
        }
    },
    "rich-text#question1end": {
        "props": {
            "text": "CAMBIAR LA TALLA DE UN PRODUCTO?"
        }
    },
    //primera respuesta
    "flex-layout.row#answer-1-a": {
        "children": [
            "image#store-icon",
            "flex-layout.col#answer-1"
        ],
        "props": {
            "blockClass": "answer-n"
        }
    },
    "flex-layout.col#answer-1": {
        "children": [
            "flex-layout.row#answer1.2",
            "flex-layout.row#answer1.3"
        ],
        "props": {
            "width": "80%",
            "blockClass": "answer-n"
        }
    },
    "flex-layout.row#answer1.2": {
        "children": [
            "rich-text#opcion-1.1",
            "rich-text#opcion-1.2"
        ]
    },
    
    "flex-layout.row#answer1.3": {
        "children": [
            "rich-text#answer1"
        ]
    },
    "rich-text#answer1": {
        "props": {
            "text": "Puedes realizar el cambio de talla de tu producto directamente en cualquiera de nuestras tiendas. Acércate con la boleta que te enviamos vía correo electrónico o con la guía de despacho recibida junto con tu pedido, te recordamos que cualquiera de estos documentos son válidos para realizar tu cambio.",
            "blockClass": "answer-text"
        }
    },
    "flex-layout.row#answer-1-b": {
        "children": [
            "flex-layout.row#answer-1-b-1",
            "rich-text#info-answers"
        ],
        "props": {
            "blockClass": "answer-complex"
        }
    },
    "flex-layout.row#answer-1-b-1": {
        "children": [
            "flex-layout.row#answer-1-b-2",
            "image#info-answer-1-b"
        ],
        "props": {
            "blockClass": "answer-b"
        }
    },
    "image#info-answer-1-b": {
        "props": {
            "src": "/arquivos/info-1.png",
            "blockClass": "img-cambios"
        }
    },
    "flex-layout.row#answer-1-b-2": {
        "children": [
            "image#truck-icon",
            "flex-layout.col#answer-1-b"
        ]
    },
    "flex-layout.col#answer-1-b": {
        "children": [
            "flex-layout.row#answer1.4",
            "flex-layout.row#answer1.5"
        ],
        "props": {
            "width": "80%",
            "blockClass": "answer-n"
        }
    },
    "flex-layout.row#answer1.4": {
        "children": [
            "rich-text#opcion-2.1",
            "rich-text#opcion-2.2"
        ]
    },
    "flex-layout.row#answer1.5": {
        "children": [
            "rich-text#answer1.8"
        ]
    },
    "rich-text#answer1.8": {
        "props": {
            "text": "Puedes realizar el cambio de talla de tu producto a través de nuestra página web entregando el producto que deseas cambiar en la  sucursal de Correos Chile más cercana. Para esta opción debes seguir los siguientes pasos:",
            "blockClass": "answer-text"
        }
    }
}