{
    //segunda pregunta
    "disclosure-layout#second": {
       "children": [
           "disclosure-trigger#second",
           "disclosure-content#second"
       ]
   },
   "disclosure-trigger#second": {
       "children": [
           "flex-layout.row#trigger-second",
           "disclosure-state-indicator"
       ]
   },
   "disclosure-content#second": {
       "children": [
           "flex-layout.row#answer-2-a",
           "flex-layout.row#answer-2-b"
       ]
   },
   "flex-layout.row#trigger-second": {
       "children": [
           "image#question2",
           "flex-layout.col#question-2"
       ]
   },
   "image#question2": {
       "props": {
           "src": "/arquivos/t-shirt.png",
           "maxHeight": "100px",
           "maxWidth": "100px",
           "blockClass": "img-cambios"
       }
   },

   "flex-layout.col#question-2": {
       "children": [
           "rich-text#question2",
           "rich-text#question2end"
       ],
       "props": {
           "width": "80%",
           "blockClass": "question-n"
       }
   },
   "rich-text#question2": {
       "props": {
           "text": "¿CÓMO HACER UN "
       }
   },
   "rich-text#question2end": {
       "props": {
           "text": "CAMBIO DE COLOR, MODELO O PRODUCTO?"
       }
   },
   //segunda respuesta
   "flex-layout.row#answer-2-a": {
       "children": [
           "image#store-icon",
           "flex-layout.col#answer-2"
       ],
       "props": {
           "blockClass": "answer-n"
       }
   },
   "flex-layout.col#answer-2": {
       "children": [
           "flex-layout.row#answer-2.1",
           "flex-layout.row#answer-2.2"
       ],
       "props": {
           "width": "80%",
           "blockClass": "answer-n"
       }
   },
   "flex-layout.row#answer-2.1": {
       "children": [
           "rich-text#opcion-1.1",
           "rich-text#opcion-1.2"
       ]
   },
   "flex-layout.row#answer-2.2": {
       "children": [
           "rich-text#answer-2"
       ]
   },
   "rich-text#answer-2": {
       "props": {
           "text": "Para realizar un cambio de color, modelo o producto puedes dirigirte directamente a cualquiera de nuestras tienda. Acércate con tu boleta o guía de despacho recibida junto con tu pedido, te recordamos que cualquiera de estos documentos son válidos para realizar tu cambio.",
           "blockClass": "answer-text"
       }
   },
   "flex-layout.row#answer-2-b": {
       "children": [
           "flex-layout.row#answer-2-b-1",
           "rich-text#info-answers"
       ],
       "props": {
           "blockClass": "answer-complex"
       }
   },
   "flex-layout.row#answer-2-b-1": {
       "children": [
           "flex-layout.row#answer-2-b-2"
       ],
       "props": {
           "blockClass": "answer-b"
       }
   },
   "flex-layout.row#answer-2-b-2": {
       "children": [
           "image#truck-icon",
           "flex-layout.col#answer-2-b"
       ]
   },
   "flex-layout.col#answer-2-b": {
       "children": [
           "flex-layout.row#answer-2.3",
           "flex-layout.row#answer-2.4"
       ],
       "props": {
           "width": "80%",
           "blockClass": "answer-n"
       }
   },
   "flex-layout.row#answer-2.3": {
       "children": [
           "rich-text#opcion-2.1",
           "rich-text#opcion-2.2"
       ]
   },
   "flex-layout.row#answer-2.4": {
       "children": [
           "rich-text#answer-2-b"
       ]
   },
   "rich-text#answer-2-b": {
       "props": {
           "text": "No se pueden hacer cambios de color, modelo o producto de manera online. Sin embargo, si quieres hacer alguno de estos cambios a través de nuestra página web puedes solicitar la devolución de tu dinero para posteriormente volver a comprar el producto que desees. ",
           "blockClass": "answer-text"
       }
   }
}