{
  "store.custom#landingrkfmoment-1": {
    "blocks": [
      "responsive-layout.desktop#rkfmoments",
      "responsive-layout.mobile#rkfmoment",
      "responsive-layout.desktop#guia-tallas",
      "responsive-layout.mobile#guia-tallas",
      "responsive-layout.desktop#rktmoment-calugas-descuentos-desktop",
      "responsive-layout.mobile#rktmoment-calugas-descuentos-mobile",
      "flex-layout.row#rktmoment-banner-destacados-top",
      "flex-layout.row#rktmoment-banner-destacados-bottom",
      "flex-layout.row#rktmoment-vitrina-sale",
      "arrow-slider"
    ]
  },
  "responsive-layout.desktop#rktmoment-calugas-descuentos-desktop": {
    "children": ["flex-layout.row#rktmoment-calugas-descuentos-desktop"]
  },
  "responsive-layout.mobile#rktmoment-calugas-descuentos-mobile": {
    "children": ["flex-layout.row#rktmoment-calugas-descuentos-mobile"]
  },
  //guia de tallas
  "responsive-layout.desktop#guia-tallas": {
    "children": ["flex-layout.row#modal-tallas"]
  },
  "responsive-layout.mobile#guia-tallas": {
    "children": ["flex-layout.row#modal-tallas"]
  },
  "flex-layout.row#modal-tallas": {
    "children": ["modal-trigger#tallas-calzado", "modal-trigger#tallas-ropa"],
    "title": "Modal Tallas",
    "props": {
      "blockClass": "row-modal-triggers"
    }
  },
  "responsive-layout.desktop#rkfmoments": {
    "title": "Slider ppal-rkfmoment-desktop",
    "children": ["slider-layout#banner-ppl-slider-botones-1"]
  },
  "responsive-layout.mobile#rkfmoment": {
    "children": [
      "list-context.image-list#rkfmoment-mobile",
      "flex-layout.row#btns-banner-mobile"
    ]
  },
  "list-context.image-list#rkfmoment-mobile": {
    "title": "Slider mobile",
    "children": ["slider-layout#rkfmoment-images-mobile"],
    "props": {
      "height": 720,
      "images": [
        {
          "image": "https://rockfordcl.vteximg.com.br/arquivos/sliderrkfmobile.jpg",
          "link": {
            "url": "/hombre/si?initialMap=c&initialQuery=hombre&map=category-1,promotion&order=OrderByBestDiscountDESC"
          }
        },
        {
          "image": "https://rockfordcl.vteximg.com.br/arquivos/sliderdelfinesdosrkf.jpg",
          "link": {
            "url": "/mujer/si?initialMap=promotion&initialQuery=si&map=genero,promotion&order=OrderByBestDiscountDESC"
          }
        }
      ]
    }
  },
  "slider-layout#rkfmoment-images-mobile": {
    "props": {
      "itemsPerPage": {
        "desktop": 1,
        "tablet": 1,
        "phone": 1
      },
      "infinite": true,
      "autoplay": {
        "timeout": 3500,
        "stopOnHover": true
      },
      "showNavigationArrows": "always",
      "showPaginationDots": "never",
      "blockClass": "carousel"
    }
  },
  "stack-layout#banner-ppal-rkfmoment-mobile": {
    "title": "Banner Principal mobile",
    "children": [
      "image#banner-ppal-mobile",
      "flex-layout.row#btns-banner-mobile"
    ],
    "props": {
      "blockClass": "ppal-rkfmoment-mobile"
    }
  },
  "stack-layout#banner-ppal-rkfmoment-desktops": {
    "title": "Banner Principal Desktop",
    "children": [
      "image#saliderconbotones-1",
      "flex-layout.row#btns-banner-desktop"
    ],
    "props": {
      "blockClass": "ppal-rkfmoment-desktop"
    }
  },
  "slider-layout#banner-ppl-slider-botones-1": {
    "props": {
      "itemsPerPage": 1,
      "infinite": true,
      "autoplay": {
        "timeout": 3500,
        "stopOnHover": true
      },
      "showNavigationArrows": "desktopOnly",
      "showPaginationDots": "desktopOnly",
      "blockClass": "carousel-click-home"
    },
    "children": [
      "stack-layout#banner-ppal-rkfmoment-desktops",
      "image#segundaslidersinbotones",
      "image#segundaslidersinbotones-2"
    ]
  },
  "rich-text#shop-men": {
    "title": "Boton Compra Hombre",
    "props": {
      "text": "[HOMBRE ](/hombre/si?initialMap=c&initialQuery=hombre&map=category-1,promotion&order=OrderByBestDiscountDESC)",
      "textAlignment": "CENTER",
      "textPosition": "CENTER",
      "blockClass": "button-rkfmoment"
    }
  },
  "rich-text#shop-women": {
    "title": "Boton Compra Mujer",
    "props": {
      "text": "[MUJER ](/mujer/si?initialMap=promotion&initialQuery=si&map=genero,promotion&order=OrderByBestDiscountDESC)",
      "textAlignment": "CENTER",
      "textPosition": "CENTER",
      "blockClass": "button-rkfmoment"
    }
  },
  "image#segundaslidersinbotones": {
    "title": "Banner Principal Imagen",
    "props": {
      "src": "https://rockfordcl.vtexassets.com/assets/vtex.file-manager-graphql/images/fcbf373d-3e77-4453-b1d4-4c3baef270cb___6156a15d24248aba578a872da5136743.jpg",
      "blockClass": "banner-rktmoment",
      "link": {
        "url": "/507?map=productClusterIds"
      }
    }
  },
  "image#segundaslidersinbotones-2": {
    "title": "Banner Principal Imagen",
    "props": {
      "src": "https://s3.us-east-2.amazonaws.com/ecom-imagenes.forus-digital.xyz/Rockford/Oferta.160222_web.gif",
      "blockClass": "banner-rktmoment",
      "link": {
        "url": "/513?map=productClusterIds"
      }
    }
  },
  "image#saliderconbotones-1": {
    "title": "Banner Principal Imagen",
    "props": {
      "src": "https://rockfordcl.vteximg.com.br/arquivos/landingrkfmoment%20(6).jpg",
      "blockClass": "banner-rktmoment",
      "link": {
        "url": "/138/si?initialMap=productClusterIds&initialQuery=138&map=productClusterIds,promotion&order=OrderByBestDiscountDESC"
      }
    }
  },

  "flex-layout.row#btns-banner-mobile": {
    "title": "Botones Banner Ppal Mobile",
    "children": ["rich-text#shop-women", "rich-text#shop-men"],
    "props": {
      "blockClass": "btns-banner-container-mobile"
    }
  },
  "image#banner-ppal-mobile": {
    "title": "Banner Principal Mobile Imagen",
    "props": {
      "src": "https://rockfordcl.vtexassets.com/assets/vtex.file-manager-graphql/images/e7351123-98a3-485c-953d-2284a7a4a8aa___cb4e01aba0989c9ab339dfaa988429a7.jpg",
      "blockClass": "banner-rktmoment"
    }
  },
  // BANNER DESTACADOS
  "flex-layout.row#rktmoment-banner-destacados": {
    "title": "Banner Destacados",
    "children": ["image#banner-banner-destacados"],
    "props": {
      "blockClass": ["rktmoment-banner-destacados", "bannerktmoment"]
    }
  },
  "image#banner-banner-destacados": {
    "title": "",
    "props": {
      "src": "https://rockfordcl.vtexassets.com/assets/vtex.file-manager-graphql/images/0ed06192-557e-4d7c-b16a-e665c6cf645c___cbf8e202d1575e86a7400801cbdfa1e5.jpg",
      "blockClass": "banner-rktmoment"
    }
  },
  // BANNERS DESCUENTOS
  "flex-layout.row#rktmoment-calugas-descuentos-desktop": {
    "children": [
      "flex-layout.col#rktmoment-descuentos-izquierda-desktop",
      "flex-layout.col#rktmoment-descuentos-medio-desktop",
      "flex-layout.col#rktmoment-descuentos-derecha-desktop"
    ],
    "props": {
      "blockClass": ["rktmoment-descuentos", "bannerktmoment"]
    },
    "title": "Banners Descuentos Destop"
  },
  "flex-layout.row#rktmoment-calugas-descuentos-mobile": {
    "children": [
      "flex-layout.col#rktmoment-descuentos-izquierda-mobile",
      "flex-layout.col#rktmoment-descuentos-medio-mobile",
      "flex-layout.col#rktmoment-descuentos-derecha-mobile"
    ],
    "props": {
      "blockClass": ["rktmoment-descuentos", "bannerktmoment"]
    },
    "title": "Banners Descuentos Mobile"
  },
  "flex-layout.col#rktmoment-descuentos-izquierda-desktop": {
    "children": ["image#rktmoment-descuentos-izquierda-desktop"]
  },
  "flex-layout.col#rktmoment-descuentos-medio-desktop": {
    "children": ["image#rktmoment-descuentos-medio-desktop"]
  },
  "flex-layout.col#rktmoment-descuentos-derecha-desktop": {
    "children": ["image#rktmoment-descuentos-derecha-desktop"]
  },
  "flex-layout.col#rktmoment-descuentos-izquierda-mobile": {
    "children": ["image#rktmoment-descuentos-izquierda-mobile"]
  },
  "flex-layout.col#rktmoment-descuentos-medio-mobile": {
    "children": ["image#rktmoment-descuentos-medio-mobile"]
  },
  "flex-layout.col#rktmoment-descuentos-derecha-mobile": {
    "children": ["image#rktmoment-descuentos-derecha-mobile"]
  },
  "image#rktmoment-descuentos-izquierda-desktop": {
    "title": "rktmoment-descuentos-izquierda",
    "props": {
      "src": "https://rockfordcl.vteximg.com.br/arquivos/landingrkfmoment%20(1).jpg",
      "blockClass": "banner-rktmoment",
      "link": {
        "url": "/138/si/vestuario?initialMap=productClusterIds&initialQuery=138&map=productClusterIds,promotion,clase&order=OrderByBestDiscountDESC"
      }
    }
  },
  "image#rktmoment-descuentos-medio-desktop": {
    "title": "rktmoment-descuentos-medio",
    "props": {
      "src": "https://rockfordcl.vteximg.com.br/arquivos/landingrkfmoment%20(3).jpg",
      "blockClass": "banner-rktmoment",
      "link": {
        "url": "/138/calzado/si?initialMap=productClusterIds&initialQuery=138&map=productClusterIds,clase,promotion&order=OrderByBestDiscountDESC"
      }
    }
  },
  "image#rktmoment-descuentos-derecha-desktop": {
    "title": "rktmoment-descuentos-derecha",
    "props": {
      "src": "https://rockfordcl.vteximg.com.br/arquivos/landingrkfmoment%20(5).jpg",
      "blockClass": "banner-rktmoment",
      "link": {
        "url": "/rockford/138/accesorios/si?initialMap=productClusterIds&initialQuery=138&map=brand,productClusterIds,clase,promotion&order=OrderByBestDiscountDESC"
      }
    }
  },
  "image#rktmoment-descuentos-izquierda-mobile": {
    "title": "rktmoment-descuentos-izquierda",
    "props": {
      "src": "https://rockfordcl.vteximg.com.br/arquivos/1rkf.jpg",
      "blockClass": "banner-rktmoment",
      "link": {
        "url": "/138/si/vestuario?initialMap=productClusterIds&initialQuery=138&map=productClusterIds,promotion,clase&order=OrderByBestDiscountDESC"
      }
    }
  },
  "image#rktmoment-descuentos-medio-mobile": {
    "title": "rktmoment-descuentos-medio",
    "props": {
      "src": "https://rockfordcl.vteximg.com.br/arquivos/3rkf.jpg",
      "blockClass": "banner-rktmoment",
      "link": {
        "url": "/138/calzado/si?initialMap=productClusterIds&initialQuery=138&map=productClusterIds,clase,promotion&order=OrderByBestDiscountDESC"
      }
    }
  },
  "image#rktmoment-descuentos-derecha-mobile": {
    "title": "rktmoment-descuentos-derecha",
    "props": {
      "src": "https://rockfordcl.vteximg.com.br/arquivos/2rkf.jpg",
      "blockClass": "banner-rktmoment",
      "link": {
        "url": "/rockford/138/accesorios/si?initialMap=productClusterIds&initialQuery=138&map=brand,productClusterIds,clase,promotion&order=OrderByBestDiscountDESC"
      }
    }
  },
  // BANNER DESTACADOS
  "flex-layout.row#rktmoment-banner-destacados-top": {
    "title": "Banner Destacados",
    "children": ["image#rktmoment-banner-destacados-top"],
    "props": {
      "blockClass": ["rktmoment-banner-destacados", "bannerktmoment"]
    }
  },
  "image#rktmoment-banner-destacados-top": {
    "title": "Banner Principal Mobile Imagen",
    "props": {
      "src": "https://rockfordcl.vteximg.com.br/arquivos/landingrkfmoment%20(4).jpg",
      "link": {
        "url": "/492?map=productClusterIds&order="
      },
      "blockClass": "banner-rktmoment"
    }
  },
  // BANNER DESTACADOS
  "flex-layout.row#rktmoment-banner-destacados-bottom": {
    "title": "Banner Destacados",
    "children": ["image#rktmoment-banner-destacados-bottom"],
    "props": {
      "blockClass": ["rktmoment-banner-destacados", "bannerktmoment"]
    }
  },
  "image#rktmoment-banner-destacados-bottom": {
    "title": "Banner Principal Mobile Imagen",
    "props": {
      "src": "https://rockfordcl.vteximg.com.br/arquivos/40offultimastallasrkf.jpg",
      "link": {
        "url": "/138/si?initialMap=productClusterIds&initialQuery=138&map=productClusterIds,promotion&order=OrderByBestDiscountDESC"
      },
      "blockClass": "banner-rktmoment"
    }
  },
  // VITRINA BEST SELLERS
  "flex-layout.row#rktmoment-vitrina-sale": {
    "children": [
      "rich-text#rktmoment-vitrina-title",
      "list-context.product-list#rktmoment-vitrina-sale"
    ],
    "title": "Recomendador BestSeller",
    "props": {
      "blockClass": "rktmoment-vitrina-sale"
    }
  },
  "rich-text#rktmoment-vitrina-title": {
    "props": {
      "textPosition": "CENTER",
      "textAlignment": "CENTER",
      "text": "BEST SELLER",
      "blockClass": "rktmoment-vitrina-title"
    }
  },
  "list-context.product-list#rktmoment-vitrina-sale": {
    "blocks": ["product-summary.shelf#vitrina-sale"],
    "children": ["slider-layout#rktmoment-vitrina-sale"],
    "props": {
      "collection": "138",
      "orderBy": "OrderByBestDiscountDESC",
      "hideUnavailableItems": true,
      "maxItems": 10
    }
  },
  "product-summary.shelf#vitrina-sale": {
    "children": [
      //   "product-summary-add-to-list-button",
      "stack-layout#prodsum-landing",
      "product-summary-brand",
      "product-summary-name",
      "product-rating-inline",
      "product-summary-space",
      // "flex-layout.row#prices",
      "modal-trigger#quickview-mobile"
      // "add-to-cart-button#go-to-pdp"
    ]
  },
  "stack-layout#prodsum-landing": {
    "children": [
      "product-summary-image",
      "vtex.product-highlights:product-highlights",
      "product-summary-specification-badges",
      // "modal-trigger#quickview",
      "product-summary-sku-selector#summary-landing",
      "add-to-list-btn"
    ],
    "props": {
      "blockClass": "product-badge"
    }
  },
  "product-summary-sku-selector#summary-landing": {
    "props": {
      "blockClass": "summary-selector",
      "initialSelection": "empty",
      "maxItems": 10
      // "displayMode": "slider",
      // "sliderArrowSize": 10,
      // "sliderItemsPerPage": {
      //   "desktop": 5,
      //   "tablet": 5
      // }
    }
  },
  "slider-layout#rktmoment-vitrina-sale": {
    "props": {
      "itemsPerPage": {
        "desktop": 5,
        "tablet": 2,
        "phone": 2
      },
      "infinite": true,
      "showNavigationArrows": "always",
      "showPaginationDots": "always",
      "blockClass": "shelf-home-rktmoment"
    }
  }
}
