{
  "footer": {
    "blocks": [
      "footer-layout.desktop",
      "footer-layout.mobile"
    ]
  },
  "footer-layout.desktop": {
    "children": [
      "flex-layout.row#footer-1-desktop",
      "flex-layout.row#footer-2-desktop",
      "hubspot-script"
    ]
  },
  "flex-layout.row#footer-1-desktop": {
    "children": [
      "flex-layout.col#servicios",
      "flex-layout.col#legal",
      "flex-layout.col#cuenta",
      "flex-layout.col#social"
    ],
    "props": {
      "blockClass": "menu-row",
      "paddingTop": 6,
      "paddingBottom": 3,
      "inverted": true
    }
  },
  "flex-layout.col#servicios": {
    "children": [
      "rich-text#servicios",
      "vtex.menu@2.x:menu#footer-servicios"
    ]
  },
  "flex-layout.col#legal": {
    "children": [
      "rich-text#legal",
      "vtex.menu@2.x:menu#footer-legal"
    ]
  },
  "flex-layout.col#cuenta": {
    "children": [
      "rich-text#cuenta",
      "vtex.menu@2.x:menu#footer-cuenta"
    ]
  },
  "flex-layout.col#social": {
    "children": [
      "rich-text#redes",
      "social-networks",
      // "newsletter",
      "hubspot-form-newsletter-footer"
    ]
  },
  // "newsletter": {
  //   "props": {
  //     "blockClass": "footer-newsletter",
  //     "label": "Newsletter",
  //     "placeholder": "Ingresar email",
  //     "confirmationTitle": "Bienvenido",
  //     "submit": ""
  //   }
  // },
  "social-networks": {
    "props": {
      "socialNetworks": [
        {
          "name": "Facebook",
          "url": "https://www.facebook.com/Rockford-Chile-1378094072411167"
        },
        {
          "name": "Instagram",
          "url": "https://www.instagram.com/rkfoutdoor"
        }
      ]
    }
  },
  "flex-layout.row#footer-2-desktop": {
    "children": [
      "image#sello-ccs",
      "image#logocorebiz",
      "image#logoblindado",
      "image#logovtex",
      "rich-text#footer-copyright"
    ],
    "props": {
      "blockClass": "footer-2-desktop"
    }
  },
  "rich-text#footer-copyright": {
    "props": {
      "textAlignment": "LEFT",
      "textPosition": "LEFT",
      "text": "© Forus S.A. 2020 <br> Av. Las Condes #11281 - Las Condes",
      "textColor": "c-muted-5",
      "font": "f2",
      "blockClass": "footer-copyright"
    }
  },
  "image#logoblindado": {
    "props": {
      "src": "/arquivos/site-blindado.png",
      "blockClass": [
        "logo-footer-blindado",
        "logo-footer"
      ],
      "maxWidth": "auto",
      "maxHeight": "25px",
      "link": {
        "url": "/",
        "openNewTab": "true"
      }
    }
  },
  "image#logovtex": {
    "props": {
      "src": "/arquivos/vtex-compressor.png",
      "blockClass": [
        "logo-footer-vtex",
        "logo-footer"
      ],
      "maxWidth": "auto",
      "maxHeight": "40px",
      "link": {
        "url": "/",
        "openNewTab": "true"
      }
    }
  },
  "image#sello-ccs": {
    "props": {
      "src": "/arquivos/sello-ccs.png",
      "blockClass": [
        "sello-ccs",
        "logo-footer"
      ],
      "maxHeight": "127px"
    }
  },
  "image#logocorebiz": {
    "props": {
      "src": "/arquivos/logo-corebiz-b.png",
      "blockClass": [
        "logo-footer-corebiz",
        "logo-footer"
      ],
      "maxWidth": "auto",
      "maxHeight": "25px",
      "link": {
        "url": "http://www.corebiz.ag/",
        "openNewTab": "true"
      }
    }
  },
  "footer-layout.mobile": {
    "children": [
      "flex-layout.row#1-footer-mobile",
      "flex-layout.row#2-footer-mobile",
      "hubspot-script"
    ]
  },
  "flex-layout.col#footer-1-mobile": {
    /* "children": [
      "social-networks",
      "rich-text#footer-mobile"
    ],
    "props": {
      "blockClass": "payment-methods",
      "paddingTop": 4,
      "paddingBottom": 4,
      "rowGap": 4
    } */
    "children": [
      "flex-layout.col#servicios",
      "flex-layout.col#legal",
      "flex-layout.col#cuenta",
      "flex-layout.col#social"
    ],
    "props": {
      "blockClass": "menu-row",
      "paddingTop": 6,
      "paddingBottom": 3,
      "inverted": true
    }
  },
  "flex-layout.row#1-footer-mobile": {
    /* "props": {
      "paddingTop": 4,
      "paddingBottom": 4
    },
    "children": ["vtex.menu@2.x:menu#footer-mobile"] */
    "children": [
      "flex-layout.col#servicios",
      "flex-layout.col#legal",
      "flex-layout.col#cuenta",
      "flex-layout.col#social"
    ],
    "props": {
      "blockClass": "menu-row-mobile",
      "paddingTop": 6,
      "paddingBottom": 3,
      "inverted": true
    }
  },
  "rich-text#footer-mobile": {
    "props": {
      "text": "All stock and product photos are from photos.icons8.com",
      "blockClass": "footer"
    }
  },
  "flex-layout.row#2-footer-mobile": {
    "children": [
      "image#sello-ccs",
      "image#logocorebiz",
      "image#logoblindado",
      "image#logovtex",
      "rich-text#footer-copyright"
    ],
    "props": {
      "fullWidth": true,
      "blockClass": "2-footer-mobile"
    }
  }
}