{
    "disclosure-layout#third-gamiphy-question": {
        "children": [
            "disclosure-trigger#third-faq-gamiphy-question",
            "disclosure-content#third-faq-gamiphy-answer"
        ]
    },
    "disclosure-trigger#third-faq-gamiphy-question": {
        "children": [
            "rich-text#third-faq-gamiphy-question",
            "disclosure-state-indicator#faq-gamiphy"
        ], 
        "props":{
            "blockClass": ["third-faq" , "gamiphy-faq"]
        }
    },
    "disclosure-content#third-faq-gamiphy-answer": {
        "children": [
            "flex-layout.row#third-faq-gamiphy-answer"
        ]
    },
    "rich-text#third-faq-gamiphy-question": {
        "props": {
            "text": "¿Qué son los niveles de beneficios?",
            "blockClass": "gamiphy-faq-question"
        }
    },
    "flex-layout.row#third-faq-gamiphy-answer": {
        "children": [
            "rich-text#third-faq-gamiphy-answer"
        ],
        "props": {
            "blockClass": "gamiphy-faq-answer"
        }
    },
    "rich-text#third-faq-gamiphy-answer":{
        "props":{
            "text":"Existen 4 niveles según la cantidad de puntos EXP que tengas. El nivel en el que estás define los beneficios a los que puedes acceder y el monto de tus compras que se transforma en puntos, es decir el porcentaje de cashback que recibes. En el primer nivel posees un 3% de cashback, en el segundo un 5%, en el tercero un 7% y en el cuarto un 10%. Ejemplo: Si estás en el segundo nivel y haces una compra por $50.000 CLP, acumulas 2500 puntos.",
            "blockClass": "gamiphy-faq-answer"
        }
    }
}