{
    "store.custom#comoPagar": {
        "blocks": [
            "flex-layout.row#comoPagar"        
        ],
        "props": {
            "blockClass": "information"
        }
    },
    "flex-layout.row#comoPagar": {
        "children": [
            "flex-layout.row#colunas-comoPagar"
        ],
        "props": {
            "blockClass": "fl-information"
        }
    },
    "flex-layout.row#colunas-comoPagar": {
        "children": [
            "flex-layout.col#col1-body-comoPagar",
            "flex-layout.col#col2-body-comoPagar"
        ],
        "props": {
            "blockClass": "colunas-information"
        }
    },
    "flex-layout.col#col1-body-comoPagar": {
        "children": [
            "corebiz-side-menu-component"
        ],
        "props": {
            "blockClass": "col1-body-information",
            "width": "20%",
            "marginRight": 5
        }
    },
    "flex-layout.col#col2-body-comoPagar": {
        "children": [
            "rich-text#pagar-titlegrande",
            "rich-text#pagar-titleone",
            "rich-text#pagar-textone",
            "rich-text#pagar-itensone",
            "image#webpay",
            "rich-text#pagar-titletwo",
            "rich-text#pagar-titlethree",
            "rich-text#pagar-texttwo"
        ],
        "props": {
            "blockClass": "col2-body-information",
            "width": "75%"
        }
    },
    "rich-text#pagar-titlegrande": {
        "props": {
            "text": "**¿CÓMO PUEDO PAGAR?**",
            "blockClass": "information-titlegrande"
        }
    },
    "rich-text#pagar-titleone": {
        "props": {
            "text": "**TARJETAS BANCARIAS**",
            "blockClass": "information-titleone"
        }
    },
    "rich-text#pagar-textone": {
        "props": {
            "text": "RockFord.cl cuenta con el sistema de pago seguro ofrecido por Webpay Plus, que te permite pagar todos tus productos utilizando Redcompra o las siguientes Tarjetas de Crédito emitidas en Chile:",
            "blockClass": "information-textone"
        }
    },
    "rich-text#pagar-itensone": {
        "props": {
            "text": "• Visa<br>• MasterCard<br>• Magna<br>• American Express<br>• Diners Club International",
            "blockClass": "information-itensone"
        }
    },
    "image#webpay": {
        "props": {
            "src": "#",
            "alt": "webpay",
            "blockClass": "webpay"
        }
    },
    "rich-text#pagar-titletwo": {
        "props": {
            "text": "<br>**CUPONES**",
            "blockClass": "information-titletwo"
        }
    },
    "rich-text#pagar-titlethree": {
        "props": {
            "text": "**USO Y RESTRICCIÓN**",
            "blockClass": "information-titlethree"
        }
    },
    "rich-text#pagar-texttwo": {
        "props": {
            "text": "Para utilizar un cupón de descuento en RockFord.cl debes ingresar su código en el campo indicado durante el proceso de pago. Los cupones tienen vigencia y deben estar al día al momento de utilizarlos.",
            "blockClass": "information-texttwo"
        }
    }
}