{
    "store.custom#landing-functionality": {
        "blocks": [
            "responsive-layout.desktop#fn",
            "responsive-layout.mobile#fn"
        ],
        "props": {
            "blockClass": "landing-functionality"
        }
    },
    "responsive-layout.desktop#fn": {
        "children": [
            "flex-layout.row#fn-first-row",
            "flex-layout.row#fn-second-row",
            "flex-layout.row#fn-third-row",
            "flex-layout.row#fn-fourth-row",
            "flex-layout.row#fn-fifth-row",
            "hover-images"
        ]
    },
    // DESKTOP
    "flex-layout.row#fn-first-row": {
        "children": [
            "flex-layout.col#fn-image-first-row"
        ],
        "props": {
            "blockClass": "first-fn-row",
            "paddingBottom": 6
        },
        "title": "First Row"
    },
    "flex-layout.col#fn-image-first-row": {
        "children": [
            "image#fn-image-first-row",
            "image#fn-image-first-row-hover"
        ],
        "props": {
            "width": "100%"
        }
    },
    "image#fn-image-first-row": {
        "props": {
            "src": "/arquivos/fn-desktop-1st-row.jpg",
            "link": "#"
        },
        "title": "image-first-row"
    },
    "image#fn-image-first-row-hover": {
        "props": {
            "src": "/arquivos/fn-desktop-1st-row-hover.jpg",
            "link": "#"
        },
        "title": "image-first-row-hover"
    },
    // Second Row
    "flex-layout.row#fn-second-row": {
        "children": [
            "flex-layout.col#fn-left-image-second-row",
            "flex-layout.col#fn-center-image-second-row",
            "flex-layout.col#fn-right-image-second-row"
        ],
        "props": {
            "blockClass": "second-fn-row",
            "paddingBottom": 6,
            "colGap": 5
        },
        "title": "Second Row"
    },
    "flex-layout.col#fn-left-image-second-row": {
        "children": [
            "image#fn-left-image-second-row",
            "image#fn-left-image-second-row-hover"
        ],
        "props": {
            "width": "grow"
        }
    },
    "flex-layout.col#fn-center-image-second-row": {
        "children": [
            "image#fn-center-image-second-row",
            "image#fn-center-image-second-row-hover"
        ],
        "props": {
            "width": "grow"
        }
    },
    "flex-layout.col#fn-right-image-second-row": {
        "children": [
            "image#fn-right-image-second-row",
            "image#fn-right-image-second-row-hover"
        ],
        "props": {
            "width": "grow"
        }
    },
    "image#fn-left-image-second-row": {
        "props": {
            "src": "/arquivos/fn-desktop-2nd-row-left.jpg",
            "link": "#"
        },
        "title": "left-image-second-row"
    },
    "image#fn-center-image-second-row": {
        "props": {
            "src": "/arquivos/fn-desktop-2nd-row-center.jpg",
            "link": "#"
        },
        "title": "center-image-second-row"
    },
    "image#fn-right-image-second-row": {
        "props": {
            "src": "/arquivos/fn-desktop-2nd-row-right.jpg",
            "link": "#"
        },
        "title": "right-image-second-row"
    },
    "image#fn-left-image-second-row-hover": {
        "props": {
            "src": "/arquivos/fn-desktop-2nd-row-left-hover.jpg",
            "link": "#"
        },
        "title": "left-image-second-row-hover"
    },
    "image#fn-center-image-second-row-hover": {
        "props": {
            "src": "/arquivos/fn-desktop-2nd-row-center-hover.jpg",
            "link": "#"
        },
        "title": "center-image-second-row-hover"
    },
    "image#fn-right-image-second-row-hover": {
        "props": {
            "src": "/arquivos/fn-desktop-2nd-row-right-hover.jpg",
            "link": "#"
        },
        "title": "right-image-second-row-hover"
    },
    // Third Row
    "flex-layout.row#fn-third-row": {
        "children": [
            "flex-layout.col#fn-left-image-third-row",
            "flex-layout.col#fn-center-image-third-row",
            "flex-layout.col#fn-right-image-third-row"
        ],
        "props": {
            "blockClass": "third-fn-row",
            "paddingBottom": 6,
            "colGap": 5
        },
        "title": "Third Row"
    },
    "flex-layout.col#fn-left-image-third-row": {
        "children": [
            "image#fn-left-image-third-row",
            "image#fn-left-image-third-row-hover"
        ],
        "props": {
            "width": "grow"
        }
    },
    "flex-layout.col#fn-center-image-third-row": {
        "children": [
            "image#fn-center-image-third-row",
            "image#fn-center-image-third-row-hover"
        ],
        "props": {
            "width": "grow"
        }
    },
    "flex-layout.col#fn-right-image-third-row": {
        "children": [
            "image#fn-right-image-third-row",
            "image#fn-right-image-third-row-hover"
        ],
        "props": {
            "width": "grow"
        }
    },
    "image#fn-left-image-third-row": {
        "props": {
            "src": "/arquivos/fn-desktop-3rd-row-left.jpg",
            "link": "#"
        },
        "title": "left-image-third-row"
    },
    "image#fn-center-image-third-row": {
        "props": {
            "src": "/arquivos/fn-desktop-3rd-row-center.jpg",
            "link": "#"
        },
        "title": "center-image-third-row"
    },
    "image#fn-right-image-third-row": {
        "props": {
            "src": "/arquivos/fn-desktop-3rd-row-right.jpg",
            "link": "#"
        },
        "title": "right-image-third-row"
    },
    "image#fn-left-image-third-row-hover": {
        "props": {
            "src": "/arquivos/fn-desktop-3rd-row-left-hover.jpg",
            "link": "#"
        },
        "title": "left-image-third-row-hover"
    },
    "image#fn-center-image-third-row-hover": {
        "props": {
            "src": "/arquivos/fn-desktop-3rd-row-center-hover.jpg",
            "link": "#"
        },
        "title": "center-image-third-row-hover"
    },
    "image#fn-right-image-third-row-hover": {
        "props": {
            "src": "/arquivos/fn-desktop-3rd-row-right-hover.jpg",
            "link": "#"
        },
        "title": "right-image-third-row-hover"
    },
    // Fourth Row
    "flex-layout.row#fn-fourth-row": {
        "children": [
            "flex-layout.col#fn-left-image-fourth-row",
            "flex-layout.col#fn-center-image-fourth-row",
            "flex-layout.col#fn-right-image-fourth-row"
        ],
        "props": {
            "blockClass": "fourth-fn-row",
            "paddingBottom": 6,
            "colGap": 5
        },
        "title": "Fourth Row"
    },
    "flex-layout.col#fn-left-image-fourth-row": {
        "children": [
            "image#fn-left-image-fourth-row",
            "image#fn-left-image-fourth-row-hover"
        ],
        "props": {
            "width": "grow"
        }
    },
    "flex-layout.col#fn-center-image-fourth-row": {
        "children": [
            "image#fn-center-image-fourth-row",
            "image#fn-center-image-fourth-row-hover"
        ],
        "props": {
            "width": "grow"
        }
    },
    "flex-layout.col#fn-right-image-fourth-row": {
        "children": [
            "image#fn-right-image-fourth-row",
            "image#fn-right-image-fourth-row-hover"
        ],
        "props": {
            "width": "grow"
        }
    },
    "image#fn-left-image-fourth-row": {
        "props": {
            "src": "/arquivos/fn-desktop-4th-row-left.jpg",
            "link": "#"
        },
        "title": "left-image-fourth-row"
    },
    "image#fn-center-image-fourth-row": {
        "props": {
            "src": "/arquivos/fn-desktop-4th-row-center.jpg",
            "link": "#"
        },
        "title": "center-image-fourth-row"
    },
    "image#fn-right-image-fourth-row": {
        "props": {
            "src": "/arquivos/fn-desktop-4th-row-right.jpg",
            "link": "#"
        },
        "title": "right-image-fourth-row"
    },
    "image#fn-left-image-fourth-row-hover": {
        "props": {
            "src": "/arquivos/fn-desktop-4th-row-left-hover.jpg",
            "link": "#"
        },
        "title": "left-image-fourth-row-hover"
    },
    "image#fn-center-image-fourth-row-hover": {
        "props": {
            "src": "/arquivos/fn-desktop-4th-row-center-hover.jpg",
            "link": "#"
        },
        "title": "center-image-fourth-row-hover"
    },
    "image#fn-right-image-fourth-row-hover": {
        "props": {
            "src": "/arquivos/fn-desktop-4th-row-right-hover.jpg",
            "link": "#"
        },
        "title": "right-image-fourth-row-hover"
    },
    // Fifth Row
    "flex-layout.row#fn-fifth-row": {
        "children": [
            "flex-layout.col#fn-image-fifth-row"
        ],
        "props": {
            "blockClass": "fifth-fn-row",
            "paddingBottom": 6,
            "horizontalAlign": "center"/*,
            "preventHorizontalStretch": true*/
        },
        "title": "Fifth Row"
    },
    "flex-layout.col#fn-image-fifth-row": {
        "children": [
            "image#fn-image-fifth-row",
            "image#fn-image-fifth-row-hover"
        ],
        "props": {
            "width": "33%"
        }
    },
    "image#fn-image-fifth-row": {
        "props": {
            "src": "/arquivos/fn-desktop-5th-row.jpg",
            "link": "#"
        },
        "title": "image-fifth-row"
    },
    "image#fn-image-fifth-row-hover": {
        "props": {
            "src": "/arquivos/fn-desktop-5th-row-hover.jpg",
            "link": "#"
        },
        "title": "image-fifth-row-hover"
    },
    // MOBILE
    "responsive-layout.mobile#fn": {
        "children": [
            "flex-layout.row#fn-first-row-mobile",
            "flex-layout.row#fn-second-row-mobile",
            "flex-layout.row#fn-third-row-mobile",
            "flex-layout.row#fn-fourth-row-mobile",
            "flex-layout.row#fn-fifth-row-mobile",
            "flex-layout.row#fn-sixth-row-mobile",
            "flex-layout.row#fn-seventh-row-mobile",
            "flex-layout.row#fn-eighth-row-mobile",
            "flex-layout.row#fn-ninth-row-mobile",
            "flex-layout.row#fn-tenth-row-mobile",
            "flex-layout.row#fn-eleventh-row-mobile"
        ]
    },
        
    // First Row
    "flex-layout.row#fn-contenedor-primer-slide": {
        "children":["image#fn-image-first-row-mobile",
            "rich-text#fn-firstbutton"],
            "props": {
                "blockClass": "contenedor-fn-landing-img-mobile"
            }
        },
    "flex-layout.row#fn-first-row-mobile": {
        "children": [
            "slider-layout#fn-first-row-mobile"
        ],
        "props": {
            "blockClass": ["first-fn-row-mobile",
            "arrow-mobile"]
        },
        "title": "First Row Mobile"
    },
    "slider-layout#fn-first-row-mobile": {
        "props": {
            "itemsPerPage": {
              "tablet": 1,
              "phone": 1
            },
            "infinite": true,
            "showNavigationArrows": "always",
            "blockClass": "fn-slider-row-mobile"
        },
        "children": [
            "flex-layout.row#fn-contenedor-primer-slide",
            "image#fn-image-first-row-hover-mobile"
        ]
    },
    "rich-text#fn-firstbutton": {
        "props": {
          "textAlignment": "CENTER",
          "textPosition": "CENTER",
          "text": "[BOTON](397?map=productClusterIds)",
          "textColor": "c-on-emphasis",
          "font": "t-heading-5",
          "blockClass": "boton-carrusel-01"
        }
    },
    "image#fn-image-first-row-mobile": {
        "props": {
            "src": "/arquivos/fn-mobile-1st-row2.jpg",
            "link": "#"
        },
        "title": "image-first-row-mobile"
    },
    "image#fn-image-first-row-hover-mobile": {
        "props": {
            "src": "/arquivos/fn-mobile-1st-row-hover2.jpg",
            "link": "#"
        },
        "title": "image-first-row-hover-mobile"
    },
    // Second Row
    "flex-layout.row#fn-contenedor-segundo-slide": {
        "children":["image#fn-image-second-row-mobile",
            "rich-text#fn-secondbutton"],
            "props": {
                "blockClass": "contenedor-fn-landing-img-mobile"
            }
        },
    "flex-layout.row#fn-second-row-mobile": {
        "children": [
            "slider-layout#fn-second-row-mobile"
        ],
        "props": {
            "blockClass": ["second-fn-row-mobile",
            "arrow-mobile"]
        },
        "title": "Second Row Mobile"
    },
    "slider-layout#fn-second-row-mobile": {
        "props": {
            "itemsPerPage": {
              "tablet": 1,
              "phone": 1
            },
            "infinite": true,
            "showNavigationArrows": "always",
            "blockClass": "fn-slider-row-mobile"
        },
        "children": [
            "flex-layout.row#fn-contenedor-segundo-slide",
            "image#fn-image-second-row-hover-mobile"
        ]
    },
    "rich-text#fn-secondbutton": {
        "props": {
          "textAlignment": "CENTER",
          "textPosition": "CENTER",
          "text": "[BOTON](/345?map=productClusterIds)",
          "textColor": "c-on-emphasis",
          "font": "t-heading-5",
          "blockClass": "boton-carrusel"
        }
    },    
    "image#fn-image-second-row-mobile": {
        "props": {
            "src": "/arquivos/fn-mobile-2nd-row-left2.jpg",
            "link": "#"
        },
        "title": "left-image-second-row-mobile"
    },
    "image#fn-image-second-row-hover-mobile": {
        "props": {
            "src": "/arquivos/fn-mobile-2nd-row-left-hover2.jpg",
            "link": "#"
        },
        "title": "left-image-second-row-hover-mobile"
    },
    // Third Row
    "flex-layout.row#fn-contenedor-tercer-slide": {
        "children":["image#fn-image-third-row-mobile",
            "rich-text#fn-thirdbutton"],
            "props": {
                "blockClass": "contenedor-fn-landing-img-mobile"
            }
        },
    "flex-layout.row#fn-third-row-mobile": {
        "children": [
            "slider-layout#fn-third-row-mobile"
        ],
        "props": {
            "blockClass": ["third-fn-row-mobile",
            "arrow-mobile"]
        },
        "title": "Third Row Mobile"
    },
    "slider-layout#fn-third-row-mobile": {
        "props": {
            "itemsPerPage": {
              "tablet": 1,
              "phone": 1
            },
            "infinite": true,
            "showNavigationArrows": "always",
            "blockClass": "fn-slider-row-mobile"
        },
        "children": [
            "flex-layout.row#fn-contenedor-tercer-slide",
            "image#fn-image-third-row-hover-mobile"
        ]
    },
    "rich-text#fn-thirdbutton": {
        "props": {
          "textAlignment": "CENTER",
          "textPosition": "CENTER",
          "text": "[BOTON](/398?map=productClusterIds)",
          "textColor": "c-on-emphasis",
          "font": "t-heading-5",
          "blockClass": "boton-carrusel"
        }
    },    
    "image#fn-image-third-row-mobile": {
        "props": {
            "src": "/arquivos/fn-mobile-2nd-row-center2.jpg",
            "link": "#"
        },
        "title": "center-image-third-row-mobile"
    },
    "image#fn-image-third-row-hover-mobile": {
        "props": {
            "src": "/arquivos/fn-mobile-2nd-row-center-hover2.jpg",
            "link": "#"
        },
        "title": "center-image-third-row-hover-mobile"
    },
    // Fourth Row
    "flex-layout.row#fn-contenedor-cuarto-slide": {
        "children":["image#fn-image-fourth-row-mobile",
            "rich-text#fn-fourthbutton"],
            "props": {
                "blockClass": "contenedor-fn-landing-img-mobile"
            }
        },
    "flex-layout.row#fn-fourth-row-mobile": {
        "children": [
            "slider-layout#fn-fourth-row-mobile"
        ],
        "props": {
            "blockClass": ["fourth-fn-row-mobile",
            "arrow-mobile"]
        },
        "title": "Fourth Row Mobile"
    },
    "slider-layout#fn-fourth-row-mobile": {
        "props": {
            "itemsPerPage": {
              "tablet": 1,
              "phone": 1
            },
            "infinite": true,
            "showNavigationArrows": "always",
            "blockClass": "fn-slider-row-mobile"
        },
        "children": [
            "flex-layout.row#fn-contenedor-cuarto-slide",
            "image#fn-image-fourth-row-hover-mobile"
        ]
    },
    "rich-text#fn-fourthbutton": {
        "props": {
          "textAlignment": "CENTER",
          "textPosition": "CENTER",
          "text": "[BOTON](/401?map=productClusterIds)",
          "textColor": "c-on-emphasis",
          "font": "t-heading-5",
          "blockClass": "boton-carrusel"
        }
    },    
    "image#fn-image-fourth-row-mobile": {
        "props": {
            "src": "/arquivos/fn-mobile-2nd-row-right2.jpg",
            "link": "#"
        },
        "title": "right-image-fourth-row-mobile"
    },
    "image#fn-image-fourth-row-hover-mobile": {
        "props": {
            "src": "/arquivos/fn-mobile-2nd-row-right-hover2.jpg",
            "link": "#"
        },
        "title": "right-image-fourth-row-hover-mobile"
    },
    // Fifth Row
    "flex-layout.row#fn-contenedor-quinto-slide": {
        "children":["image#fn-image-fifth-row-mobile",
            "rich-text#fn-fifthbutton"],
            "props": {
                "blockClass": "contenedor-fn-landing-img-mobile"
            }
        },
    "flex-layout.row#fn-fifth-row-mobile": {
        "children": [
            "slider-layout#fn-fifth-row-mobile"
        ],
        "props": {
            "blockClass": ["fifth-fn-row-mobile",
            "arrow-mobile"]
        },
        "title": "Fifth Row Mobile"
    },
    "slider-layout#fn-fifth-row-mobile": {
        "props": {
            "itemsPerPage": {
              "tablet": 1,
              "phone": 1
            },
            "infinite": true,
            "showNavigationArrows": "always",
            "blockClass": "fn-slider-row-mobile"
        },
        "children": [
            "flex-layout.row#fn-contenedor-quinto-slide",
            "image#fn-image-fifth-row-hover-mobile"
        ]
    },
    "rich-text#fn-fifthbutton": {
        "props": {
          "textAlignment": "CENTER",
          "textPosition": "CENTER",
          "text": "[BOTON](/400?map=productClusterIds)",
          "textColor": "c-on-emphasis",
          "font": "t-heading-5",
          "blockClass": "boton-carrusel"
        }
    },    
    "image#fn-image-fifth-row-mobile": {
        "props": {
            "src": "/arquivos/fn-mobile-3rd-row-left2.jpg",
            "link": "#"
        },
        "title": "left-image-fifth-row-mobile"
    },
    "image#fn-image-fifth-row-hover-mobile": {
        "props": {
            "src": "/arquivos/fn-mobile-3rd-row-left-hover2.jpg",
            "link": "#"
        },
        "title": "left-image-fifth-row-hover-mobile"
    },
    // Sixth Row
    "flex-layout.row#fn-contenedor-sexto-slide": {
        "children":["image#fn-image-sixth-row-mobile",
            "rich-text#fn-sixthbutton"],
            "props": {
                "blockClass": "contenedor-fn-landing-img-mobile"
            }
        },
    "flex-layout.row#fn-sixth-row-mobile": {
        "children": [
            "slider-layout#fn-sixth-row-mobile"
        ],
        "props": {
            "blockClass": ["sixth-fn-row-mobile",
            "arrow-mobile"]
        },
        "title": "Sixth Row Mobile"
    },
    "slider-layout#fn-sixth-row-mobile": {
        "props": {
            "itemsPerPage": {
              "tablet": 1,
              "phone": 1
            },
            "infinite": true,
            "showNavigationArrows": "always",
            "blockClass": "fn-slider-row-mobile"
        },
        "children": [
            "flex-layout.row#fn-contenedor-sexto-slide",
            "image#fn-image-sixth-row-hover-mobile"
        ]
    },
    "rich-text#fn-sixthbutton": {
        "props": {
          "textAlignment": "CENTER",
          "textPosition": "CENTER",
          "text": "[BOTON](/405?map=productClusterIds)",
          "textColor": "c-on-emphasis",
          "font": "t-heading-5",
          "blockClass": "boton-carrusel"
        }
    },    
    "image#fn-image-sixth-row-mobile": {
        "props": {
            "src": "/arquivos/fn-mobile-3rd-row-center2.jpg",
            "link": "#"
        },
        "title": "center-image-sixth-row-mobile"
    },
    "image#fn-image-sixth-row-hover-mobile": {
        "props": {
            "src": "/arquivos/fn-mobile-3rd-row-center-hover2.jpg",
            "link": "#"
        },
        "title": "center-image-sixth-row-hover-mobile"
    },
    // Seventh Row
    "flex-layout.row#fn-contenedor-septimo-slide": {
        "children":["image#fn-image-seventh-row-mobile",
            "rich-text#fn-seventhbutton"],
            "props": {
                "blockClass": "contenedor-fn-landing-img-mobile"
            }
        },
    "flex-layout.row#fn-seventh-row-mobile": {
        "children": [
            "slider-layout#fn-seventh-row-mobile"
        ],
        "props": {
            "blockClass": ["seventh-fn-row-mobile",
            "arrow-mobile"]
        },
        "title": "Seventh Row Mobile"
    },
    "slider-layout#fn-seventh-row-mobile": {
        "props": {
            "itemsPerPage": {
              "tablet": 1,
              "phone": 1
            },
            "infinite": true,
            "showNavigationArrows": "always",
            "blockClass": "fn-slider-row-mobile"
        },
        "children": [
            "flex-layout.row#fn-contenedor-septimo-slide",
            "image#fn-image-seventh-row-hover-mobile"
        ]
    },
    "rich-text#fn-seventhbutton": {
        "props": {
          "textAlignment": "CENTER",
          "textPosition": "CENTER",
          "text": "[BOTON](/404?map=productClusterIds)",
          "textColor": "c-on-emphasis",
          "font": "t-heading-5",
          "blockClass": "boton-carrusel"
        }
    },    
    "image#fn-image-seventh-row-mobile": {
        "props": {
            "src": "/arquivos/fn-mobile-3rd-row-right2.jpg",
            "link": "#"
        },
        "title": "right-image-seventh-row-mobile"
    },
    "image#fn-image-seventh-row-hover-mobile": {
        "props": {
            "src": "/arquivos/fn-mobile-3rd-row-right-hover2.jpg",
            "link": "#"
        },
        "title": "right-image-seventh-row-hover-mobile"
    },
    // Eighth Row
    "flex-layout.row#fn-contenedor-octavo-slide": {
        "children":["image#fn-image-eighth-row-mobile",
            "rich-text#fn-eighthbutton"],
            "props": {
                "blockClass": "contenedor-fn-landing-img-mobile"
            }
        },
    "flex-layout.row#fn-eighth-row-mobile": {
        "children": [
            "slider-layout#fn-eighth-row-mobile"
        ],
        "props": {
            "blockClass": ["eighth-fn-row-mobile",
            "arrow-mobile"]
        },
        "title": "Eighth Row Mobile"
    },
    "slider-layout#fn-eighth-row-mobile": {
        "props": {
            "itemsPerPage": {
              "tablet": 1,
              "phone": 1
            },
            "infinite": true,
            "showNavigationArrows": "always",
            "blockClass": "fn-slider-row-mobile"
        },
        "children": [
            "flex-layout.row#fn-contenedor-octavo-slide",
            "image#fn-image-eighth-row-hover-mobile"
        ]
    },
    "rich-text#fn-eighthbutton": {
        "props": {
          "textAlignment": "CENTER",
          "textPosition": "CENTER",
          "text": "[BOTON](/289?map=productClusterIds)",
          "textColor": "c-on-emphasis",
          "font": "t-heading-5",
          "blockClass": "boton-carrusel"
        }
    },    
    "image#fn-image-eighth-row-mobile": {
        "props": {
            "src": "/arquivos/fn-mobile-4th-row-left2.jpg",
            "link": "#"
        },
        "title": "left-image-eighth-row-mobile"
    },
    "image#fn-image-eighth-row-hover-mobile": {
        "props": {
            "src": "/arquivos/fn-mobile-4th-row-left-hover2.jpg",
            "link": "#"
        },
        "title": "left-image-eighth-row-hover-mobile"
    },
    // Ninth Row
    "flex-layout.row#fn-contenedor-noveno-slide": {
        "children":["image#fn-image-ninth-row-mobile",
            "rich-text#fn-ninthbutton"],
            "props": {
                "blockClass": "contenedor-fn-landing-img-mobile"
            }
        },
    "flex-layout.row#fn-ninth-row-mobile": {
        "children": [
            "slider-layout#fn-ninth-row-mobile"
        ],
        "props": {
            "blockClass": ["ninth-fn-row-mobile",
            "arrow-mobile"]
        },
        "title": "Ninth Row Mobile"
    },
    "slider-layout#fn-ninth-row-mobile": {
        "props": {
            "itemsPerPage": {
              "tablet": 1,
              "phone": 1
            },
            "infinite": true,
            "showNavigationArrows": "always",
            "blockClass": "fn-slider-row-mobile"
        },
        "children": [
            "flex-layout.row#fn-contenedor-noveno-slide",
            "image#fn-image-ninth-row-hover-mobile"
        ]
    },
    "rich-text#fn-ninthbutton": {
        "props": {
          "textAlignment": "CENTER",
          "textPosition": "CENTER",
          "text": "[BOTON](/402?map=productClusterIds)",
          "textColor": "c-on-emphasis",
          "font": "t-heading-5",
          "blockClass": "boton-carrusel"
        }
    },
    "image#fn-image-ninth-row-mobile": {
        "props": {
            "src": "/arquivos/fn-mobile-4th-row-center2.jpg",
            "link": "#"
        },
        "title": "right-image-ninth-row-mobile"
    },
    "image#fn-image-ninth-row-hover-mobile": {
        "props": {
            "src": "/arquivos/fn-mobile-4th-row-center-hover2.jpg",
            "link": "#"
        },
        "title": "right-image-ninth-row-hover-mobile"
    },
    // Tenth Row
    "flex-layout.row#fn-contenedor-decimo-slide": {
        "children":["image#fn-image-tenth-row-mobile",
            "rich-text#fn-tenthbutton"],
            "props": {
                "blockClass": "contenedor-fn-landing-img-mobile"
            }
        },
    "flex-layout.row#fn-tenth-row-mobile": {
        "children": [
            "slider-layout#fn-tenth-row-mobile"
        ],
        "props": {
            "blockClass": ["tenth-fn-row-mobile",
            "arrow-mobile"]
        },
        "title": "Tenth Row Mobile"
    },
    "slider-layout#fn-tenth-row-mobile": {
        "props": {
            "itemsPerPage": {
              "tablet": 1,
              "phone": 1
            },
            "infinite": true,
            "showNavigationArrows": "always",
            "blockClass": "fn-slider-row-mobile"
        },
        "children": [
            "flex-layout.row#fn-contenedor-decimo-slide",
            "image#fn-image-tenth-row-hover-mobile"
        ]
    },
    "rich-text#fn-tenthbutton": {
        "props": {
          "textAlignment": "CENTER",
          "textPosition": "CENTER",
          "text": "[BOTON](/403?map=productClusterIds)",
          "textColor": "c-on-emphasis",
          "font": "t-heading-5",
          "blockClass": "boton-carrusel"
        }
    },    
    "image#fn-image-tenth-row-mobile": {
        "props": {
            "src": "/arquivos/fn-mobile-4th-row-right2.jpg",
            "link": "#"
        },
        "title": "right-image-tenth-row-mobile"
    },
    "image#fn-image-tenth-row-hover-mobile": {
        "props": {
            "src": "/arquivos/fn-mobile-4th-row-right-hover2.jpg",
            "link": "#"
        },
        "title": "right-image-tenth-row-hover-mobile"
    },
    // Eleventh Row
    "flex-layout.row#fn-contenedor-decimoPrimero-slide": {
        "children":["image#fn-image-eleventh-row-mobile",
            "rich-text#fn-eleventhbutton"],
            "props": {
                "blockClass": "contenedor-fn-landing-img-mobile"
            }
        },
    "flex-layout.row#fn-eleventh-row-mobile": {
        "children": [
            "slider-layout#fn-eleventh-row-mobile"
        ],
        "props": {
            "blockClass": ["eleventh-fn-row-mobile",
            "arrow-mobile"]
        },
        "title": "eleventh Row Mobile"
    },
    "slider-layout#fn-eleventh-row-mobile": {
        "props": {
            "itemsPerPage": {
              "tablet": 1,
              "phone": 1
            },
            "infinite": true,
            "showNavigationArrows": "always",
            "blockClass": "fn-slider-row-mobile"
        },
        "children": [
            "flex-layout.row#fn-contenedor-decimoPrimero-slide",
            "image#fn-image-eleventh-row-hover-mobile"
        ]
    },
    "rich-text#fn-eleventhbutton": {
        "props": {
          "textAlignment": "CENTER",
          "textPosition": "CENTER",
          "text": "[BOTON](/406?map=productClusterIds)",
          "textColor": "c-on-emphasis",
          "font": "t-heading-5",
          "blockClass": "boton-carrusel"
        }
    },
    "image#fn-image-eleventh-row-mobile": {
        "props": {
            "src": "/arquivos/fn-mobile-5th-row2.jpg",
            "link": "#"
        },
        "title": "right-image-eleventh-row-mobile"
    },
    "image#fn-image-eleventh-row-hover-mobile": {
        "props": {
            "src": "/arquivos/fn-mobile-5th-row-hover2.jpg",
            "link": "#"
        },
        "title": "right-image-eleventh-row-hover-mobile"
    }
}