{
    "store.custom#landing-rockforandfriends": {
        "blocks": [
            "list-context.image-list#carousel-friends",
            "flex-layout.row#titulo-why-container",
            "flex-layout.row#why-should",
            "flex-layout.row#works",
            "flex-layout.row#earn",
             "flex-layout.row#join",
             "flex-layout.row#gamiphy-faq"
        ],
        "props": {
            "blockClass": "landing-rockforandfriends"
        }
    },
    // SLIDER PRINCIPAL
    "list-context.image-list#carousel-friends": {
        "title": "Slider Principal",
        "children": ["slider-layout#carousel-friends"],
        "props": {
            "height": 720,
            "blockClass": "carousel-friends",
            "images": [{
                    "image": "https://rockfordcl.vtexassets.com/assets/vtex.file-manager-graphql/images/e39247d5-3d6e-4bd9-9720-d02104371c32___62600d0a2279864cff48a7c6595b1ddb.jpg",
                    "mobileImage": "https://rockfordcl.vtexassets.com/assets/vtex.file-manager-graphql/images/e39247d5-3d6e-4bd9-9720-d02104371c32___62600d0a2279864cff48a7c6595b1ddb.jpg",
                    "link": {
                        "url": "#"
                    }
                },
                {
                    "image": "https://rockfordcl.vtexassets.com/assets/vtex.file-manager-graphql/images/e39247d5-3d6e-4bd9-9720-d02104371c32___62600d0a2279864cff48a7c6595b1ddb.jpg",
                    "mobileImage": "https://rockfordcl.vtexassets.com/assets/vtex.file-manager-graphql/images/e39247d5-3d6e-4bd9-9720-d02104371c32___62600d0a2279864cff48a7c6595b1ddb.jpg",
                    "link": {
                        "url": "#"
                    }
                }
            ]
        }
    },
    "slider-layout#carousel-friends": {
        "props": {
            "itemsPerPage": {
                "desktop": 1,
                "tablet": 1,
                "phone": 1
            },
            "autoplay": {
                "timeout": 4000,
                "stopOnHover": false
            },
            "infinite": true,
            "showNavigationArrows": "desktopOnly",
            "blockClass": "carousel-friends"
        }
    },
    "flex-layout.row#titulo-why-container": {
        "children": [
            "flex-layout.col#titulo-why"
        ],
        "title": "titulos why"
    },
    "flex-layout.row#why-should": {
        "children": [
            "flex-layout.col#why-should-izquierda",
            "flex-layout.col#why-should-medio",
            "flex-layout.col#why-should-derecha"
        ],
        "props": {
            "blockClass": "why-should",
            "marginBottom": 7
        },
        "title": "Imágenes why"
    },
    "flex-layout.row#works": {
        "children": [
            "flex-layout.row#works-titulos",
            "flex-layout.row#works-images"
        ],
        "props": {
            "blockClass": "how-works",
            "fullWidth": true
        },
        "title": "How works"
    },
    "flex-layout.col#titulo-why": {
        "children": [
            "rich-text#titulo-why"
        ]
    },
    "rich-text#titulo-why": {
        "props": {
            "textPosition": "CENTER",
            "text": "## WHY SHOULD I JOIN?",
            "blockClass": "titulo-why"
        }
    },
    "flex-layout.col#why-should-izquierda": {
        "children": [
            "image#why-should-izquierda"
        ],
        "props": {
            "paddingLeft": 5,
            "paddingRight": 5
        }
    },
    "flex-layout.col#why-should-medio": {
        "children": [
            "image#why-should-medio"
        ],
        "props": {
            "paddingLeft": 5,
            "paddingRight": 5
        }
    },
    "flex-layout.col#why-should-derecha": {
        "children": [
            "image#why-should-derecha"
        ],
        "props": {
            "paddingLeft": 5,
            "paddingRight": 5
        }
    },
    "image#why-should-izquierda": {
        "props": {
            "src": "https://picsum.photos/seed/picsum/416/448",
            "paddingLeft": 5,
            "paddingRight": 5
        }
    },
    "image#why-should-medio": {
        "props": {
            "src": "https://picsum.photos/seed/picsum/416/448",
            "paddingLeft": 5,
            "paddingRight": 5
        }
    },
    "image#why-should-derecha": {
        "props": {
            "src": "https://picsum.photos/seed/picsum/416/448",
            "paddingLeft": 5,
            "paddingRight": 5
        }
    },
    "flex-layout.row#works-titulos": {
        "children": [
            "flex-layout.col#titulo-works",
            "flex-layout.col#bajada-works"
        ],
        "props": {
            "blockClass": "how-works-titulos"
        }
    },
    "flex-layout.row#works-images": {
        "children": [
            "flex-layout.col#imgizquierda",
            "flex-layout.col#imgderecha"
        ],
        "props": {
            "blockClass": "contenedor-imagenes-works"
        }
    },
    "flex-layout.col#titulo-works": {
        "children": [
            "rich-text#titulo"
        ]
    },
    "flex-layout.col#bajada-works": {
        "children": [
            "rich-text#bajada"
        ]
    },
    "flex-layout.col#imgizquierda": {
        "children": [
            "image#img-izquierda"
        ],
        "props": {
            "width": "100%",
            "paddingLeft": 7,
            "paddingRight": 7
        }
    },
    "flex-layout.col#imgderecha": {
        "children": [
            "image#img-derecha"

        ],
        "props": {
            "width": "100%",
            "paddingLeft": 7,
            "paddingRight": 7
        }
    },
    "rich-text#titulo": {
        "props": {
            "textPosition": "CENTER",
            "text": "## HOW DOES IT WORK?",
            "blockClass": "titulo-works"
        }
    },
    "rich-text#bajada": {
        "props": {
            "textPosition": "CENTER",
            "text": "move the slider to convert you points into real discounts!",
            "blockClass": "bajada-works"
        }
    },
    "image#img-izquierda": {
        "props": {
            "src": "https://picsum.photos/seed/picsum/723/462",
            "width": "100%"
        }
    },
    "image#img-derecha": {
        "props": {
            "src": "https://picsum.photos/seed/picsum/723/462",
            "width": "100%"
        }
    },
    "flex-layout.row#earn": {
        "children": [
            "flex-layout.row#earn-container-titulo",
            "flex-layout.row#earn-container-infocard"
        ],
        "props": {
            "blockClass": "earn-rows"
        },
         "title": "How to earn"
    },
    "flex-layout.row#earn-container-titulo": {
        "children": [
            "flex-layout.col#titulo-earn"
        ],
        "props": {
            "blockClass": "earn-titulos"
        }

    },
    "flex-layout.col#titulo-earn": {
        "children": [
            "rich-text#titulo-ear"
        ],
        "props": {
            "blockClass": "titulo-earn"
        }
    },
    "rich-text#titulo-ear": {
        "props": {
            "textPosition": "CENTER",
            "text": "## HOW TO EARN POINTS?",
            "blockClass": "titulo-earn"

        }
    },
    "flex-layout.row#earn-container-infocard": {
        "children": [
            "flex-layout.col#pasos"
        ]

    },
    "flex-layout.col#pasos": {
        "children": [
            "info-card#paso-1",
            "info-card#paso-2",
            "info-card#paso-3"
        ],
        "props":{
            "blockClass":"earn-pasos"
        }
    },
    "info-card#paso-1": {
        "props": {
            "isFullModeStyle": false,
            "textPosition": "right",
            "imageUrl": "https://picsum.photos/seed/picsum/700/336",
            "mobileImageUrl": "https://picsum.photos/seed/picsum/700/336",
            "headline": "Earn 1 Point for every CLP you spend",
            "callToActionMode": "none",
            "textAlignment": "center",
            "blockClass": "earn-pasos"
        }
    },
    "info-card#paso-2": {
        "props": {
            "isFullModeStyle": false,
            "textPosition": "right",
            "imageUrl": "https://picsum.photos/seed/picsum/700/336",
            "mobileImageUrl": "https://picsum.photos/seed/picsum/700/336",
            "headline": "Win exclusive competitions and complete missions",
            "callToActionMode": "none",
            "textAlignment": "center",
            "blockClass": "earn-pasos"
        }
    },
    "info-card#paso-3": {
        "props": {
            "isFullModeStyle": false,
            "textPosition": "right",
            "imageUrl": "https://picsum.photos/seed/picsum/700/336",
            "mobileImageUrl": "https://picsum.photos/seed/picsum/700/336",
            "headline": "Play our game and redeem your score into Points!",
            "callToActionText": "Play CAT Game",
            "callToActionUrl": "#",
            "callToActionMode": "link",
            "textAlignment": "center",
            "blockClass": "info-cta-earn-pasos"
        }
    },
    "flex-layout.row#join":{
        "children":[
            "rich-text#boton-join"
        ],
        "props":{
            "blockClass":"boton-join"
        },
        "title":"Boton join"
    },
    "rich-text#boton-join":{
        "props":{
            "textPosition":"CENTER",
            "text":"[Join Now](#)",
            "blockClass":"boton-join",
            "font":"t-heading-5"
        }
    }
}